12345678,Іван,Дорн,1988-10-17
12344348,Андрій,Кузьменко,1968-08-17
23555678,Юлія,Саніна,1990-10-11
21342344,Ната,Жижченко,1985-03-22
65344548,Святослав,Вакарчук,1975-05-14
43346785,Руслана,Лижичко,1973-05-24
76343466,Олександр,Положинський,1972-05-28
95547554,Олег,Скрипка,1964-05-24
44766776,Василь,Вірастюк,1974-04-22
34234463,Олександр,Усик,1987-01-17
38923747,Віталій,Кличко,1971-07-19
24894328,Володимир,Кличко,1976-03-25
43356344,Богдан,Ступка,1941-08-27
21321332,Юрій,Филюк,1982-10-28
42312133,Анна,Заячківська,1991-12-12
13232133,Сусана,Джамаладинова,1983-08-27

